{
  "/": {
    "src/components/rd-app.js": {
      "crossorigin": "anonymous",
      "type": "script",
      "weight": 1
    },
    "src/components/rd-home.js": {
      "crossorigin": "anonymous",
      "type": "script",
      "weight": 1
    },
    "node_modules/@webcomponents/webcomponentsjs/webcomponents-loader.js": {
      "type": "script",
      "weight": 1
    }
  },
  "/home": {
    "src/components/rd-app.js": {
      "crossorigin": "anonymous",
      "type": "script",
      "weight": 1
    },
    "src/components/rd-home.js": {
      "crossorigin": "anonymous",
      "type": "script",
      "weight": 1
    },
    "node_modules/@webcomponents/webcomponentsjs/webcomponents-loader.js": {
      "type": "script",
      "weight": 1
    }
  }
}
